{
	"application": {
		"dataSources": {
			"db": "mysql://test:test@localhost/test"
		},
		"enableSessions": true,
		"sessionName": "TemmaSession",
		"rootController": "Homepage"
	},
	"loglevels": {
		"Temma/Base": "DEBUG",
		"Temma/Web": "DEBUG",
		"myapp": "DEBUG"
	}
}
